[
  {
  "code": "DCB",
  "desc": "DEATH DUE TO CHILDBIRTH",
  "code1": null,
  "desc1": null,
  "status": "A",
  "lastInftim": null,
  "lastupdUser": null,
  "lastupdProg": null,
  "id": null,
  "vArabicPymtDesc": null,
  "vPdCompareOption": null,
  "nPdModalPremTimes": null,
  "vPdPutOption": null,
  "nTpModalPremTimes": null,
  "nFpModalPremTimes": null,
  "nFpMaxPolicyAnniversary": null
  },
  {
  "code": "HBCB",
  "desc": "HOSP. BENEFIT ON CHILD BIRTH",
  "code1": null,
  "desc1": null,
  "status": "A",
  "lastInftim": null,
  "lastupdUser": null,
  "lastupdProg": null,
  "id": null,
  "vArabicPymtDesc": null,
  "vPdCompareOption": null,
  "nPdModalPremTimes": null,
  "vPdPutOption": null,
  "nTpModalPremTimes": null,
  "nFpModalPremTimes": null,
  "nFpMaxPolicyAnniversary": null
  },
  {
  "code": "JD",
  "desc": "JUVENILE CRITICAL ILLNESS",
  "code1": null,
  "desc1": null,
  "status": "A",
  "lastInftim": null,
  "lastupdUser": null,
  "lastupdProg": null,
  "id": null,
  "vArabicPymtDesc": null,
  "vPdCompareOption": null,
  "nPdModalPremTimes": null,
  "vPdPutOption": null,
  "nTpModalPremTimes": null,
  "nFpModalPremTimes": null,
  "nFpMaxPolicyAnniversary": null
  },
  {
  "code": "CCA",
  "desc": "CHILD CARE ALLOWANCE",
  "code1": null,
  "desc1": null,
  "status": "A",
  "lastInftim": null,
  "lastupdUser": null,
  "lastupdProg": null,
  "id": null,
  "vArabicPymtDesc": null,
  "vPdCompareOption": null,
  "nPdModalPremTimes": null,
  "vPdPutOption": null,
  "nTpModalPremTimes": null,
  "nFpModalPremTimes": null,
  "nFpMaxPolicyAnniversary": null
  },
  {
  "code": "CI",
  "desc": "CRITICAL ILLNESSES",
  "code1": null,
  "desc1": null,
  "status": "A",
  "lastInftim": null,
  "lastupdUser": null,
  "lastupdProg": null,
  "id": null,
  "vArabicPymtDesc": null,
  "vPdCompareOption": null,
  "nPdModalPremTimes": null,
  "vPdPutOption": null,
  "nTpModalPremTimes": null,
  "nFpModalPremTimes": null,
  "nFpMaxPolicyAnniversary": null
  },
  {
  "code": "GMAT",
  "desc": "MATURITY",
  "code1": null,
  "desc1": null,
  "status": "A",
  "lastInftim": null,
  "lastupdUser": null,
  "lastupdProg": null,
  "id": null,
  "vArabicPymtDesc": null,
  "vPdCompareOption": null,
  "nPdModalPremTimes": null,
  "vPdPutOption": null,
  "nTpModalPremTimes": null,
  "nFpModalPremTimes": null,
  "nFpMaxPolicyAnniversary": null
  },
  {
  "code": "HB",
  "desc": "HOSPITAL BENEFIT",
  "code1": null,
  "desc1": null,
  "status": "A",
  "lastInftim": null,
  "lastupdUser": null,
  "lastupdProg": null,
  "id": null,
  "vArabicPymtDesc": null,
  "vPdCompareOption": null,
  "nPdModalPremTimes": null,
  "vPdPutOption": null,
  "nTpModalPremTimes": null,
  "nFpModalPremTimes": null,
  "nFpMaxPolicyAnniversary": null
  },
  {
  "code": "HS",
  "desc": "HOSPITAL & SURGICAL",
  "code1": null,
  "desc1": null,
  "status": "A",
  "lastInftim": null,
  "lastupdUser": null,
  "lastupdProg": null,
  "id": null,
  "vArabicPymtDesc": null,
  "vPdCompareOption": null,
  "nPdModalPremTimes": null,
  "vPdPutOption": null,
  "nTpModalPremTimes": null,
  "nFpModalPremTimes": null,
  "nFpMaxPolicyAnniversary": null
  },
  {
  "code": "ME",
  "desc": "MEDICAL EXPENSES",
  "code1": null,
  "desc1": null,
  "status": "A",
  "lastInftim": null,
  "lastupdUser": null,
  "lastupdProg": null,
  "id": null,
  "vArabicPymtDesc": null,
  "vPdCompareOption": null,
  "nPdModalPremTimes": null,
  "vPdPutOption": null,
  "nTpModalPremTimes": null,
  "nFpModalPremTimes": null,
  "nFpMaxPolicyAnniversary": null
  },
  {
  "code": "FE",
  "desc": "FUNERAL EXPENSE",
  "code1": null,
  "desc1": null,
  "status": "A",
  "lastInftim": null,
  "lastupdUser": null,
  "lastupdProg": null,
  "id": null,
  "vArabicPymtDesc": null,
  "vPdCompareOption": null,
  "nPdModalPremTimes": null,
  "vPdPutOption": null,
  "nTpModalPremTimes": null,
  "nFpModalPremTimes": null,
  "nFpMaxPolicyAnniversary": null
  },
  {
  "code": "FIB",
  "desc": "FAMILY INCOME BENEFIT",
  "code1": null,
  "desc1": null,
  "status": "A",
  "lastInftim": null,
  "lastupdUser": null,
  "lastupdProg": null,
  "id": null,
  "vArabicPymtDesc": null,
  "vPdCompareOption": null,
  "nPdModalPremTimes": null,
  "vPdPutOption": null,
  "nTpModalPremTimes": null,
  "nFpModalPremTimes": null,
  "nFpMaxPolicyAnniversary": null
  },
  {
  "code": "FC",
  "desc": "FEMALE CANCER",
  "code1": null,
  "desc1": null,
  "status": "A",
  "lastInftim": null,
  "lastupdUser": null,
  "lastupdProg": null,
  "id": null,
  "vArabicPymtDesc": null,
  "vPdCompareOption": null,
  "nPdModalPremTimes": null,
  "vPdPutOption": null,
  "nTpModalPremTimes": null,
  "nFpModalPremTimes": null,
  "nFpMaxPolicyAnniversary": null
  },
  {
  "code": "CIS",
  "desc": "CARCINOMA-IN-SITU",
  "code1": null,
  "desc1": null,
  "status": "A",
  "lastInftim": null,
  "lastupdUser": null,
  "lastupdProg": null,
  "id": null,
  "vArabicPymtDesc": null,
  "vPdCompareOption": null,
  "nPdModalPremTimes": null,
  "vPdPutOption": null,
  "nTpModalPremTimes": null,
  "nFpModalPremTimes": null,
  "nFpMaxPolicyAnniversary": null
  },
  {
  "code": "PCA",
  "desc": "PHYSICAL CARE ALLOWANCE",
  "code1": null,
  "desc1": null,
  "status": "A",
  "lastInftim": null,
  "lastupdUser": null,
  "lastupdProg": null,
  "id": null,
  "vArabicPymtDesc": null,
  "vPdCompareOption": null,
  "nPdModalPremTimes": null,
  "vPdPutOption": null,
  "nTpModalPremTimes": null,
  "nFpModalPremTimes": null,
  "nFpMaxPolicyAnniversary": null
  },
  {
  "code": "PC",
  "desc": "PREGNANCY COMPLICATION",
  "code1": null,
  "desc1": null,
  "status": "A",
  "lastInftim": null,
  "lastupdUser": null,
  "lastupdProg": null,
  "id": null,
  "vArabicPymtDesc": null,
  "vPdCompareOption": null,
  "nPdModalPremTimes": null,
  "vPdPutOption": null,
  "nTpModalPremTimes": null,
  "nFpModalPremTimes": null,
  "nFpMaxPolicyAnniversary": null
  },
  {
  "code": "CA",
  "desc": "CONGENITAL ANOMALIES",
  "code1": null,
  "desc1": null,
  "status": "A",
  "lastInftim": null,
  "lastupdUser": null,
  "lastupdProg": null,
  "id": null,
  "vArabicPymtDesc": null,
  "vPdCompareOption": null,
  "nPdModalPremTimes": null,
  "vPdPutOption": null,
  "nTpModalPremTimes": null,
  "nFpModalPremTimes": null,
  "nFpMaxPolicyAnniversary": null
  },
  {
  "code": "GYB",
  "desc": "Golden Year Benefit",
  "code1": null,
  "desc1": null,
  "status": "A",
  "lastInftim": null,
  "lastupdUser": null,
  "lastupdProg": null,
  "id": null,
  "vArabicPymtDesc": null,
  "vPdCompareOption": null,
  "nPdModalPremTimes": null,
  "vPdPutOption": null,
  "nTpModalPremTimes": null,
  "nFpModalPremTimes": null,
  "nFpMaxPolicyAnniversary": null
  },
  {
  "code": "CAA",
  "desc": "The benefit shall cease upon attained age 45",
  "code1": null,
  "desc1": null,
  "status": "A",
  "lastInftim": null,
  "lastupdUser": null,
  "lastupdProg": null,
  "id": null,
  "vArabicPymtDesc": null,
  "vPdCompareOption": null,
  "nPdModalPremTimes": null,
  "vPdPutOption": null,
  "nTpModalPremTimes": null,
  "nFpModalPremTimes": null,
  "nFpMaxPolicyAnniversary": null
  },
  {
  "code": "DTH-SP",
  "desc": "DEATH-SPOUSE",
  "code1": null,
  "desc1": null,
  "status": "A",
  "lastInftim": null,
  "lastupdUser": null,
  "lastupdProg": null,
  "id": null,
  "vArabicPymtDesc": null,
  "vPdCompareOption": null,
  "nPdModalPremTimes": null,
  "vPdPutOption": null,
  "nTpModalPremTimes": null,
  "nFpModalPremTimes": null,
  "nFpMaxPolicyAnniversary": null
  },
  {
  "code": "DTH-CH",
  "desc": "DEATH-CHILD",
  "code1": null,
  "desc1": null,
  "status": "A",
  "lastInftim": null,
  "lastupdUser": null,
  "lastupdProg": null,
  "id": null,
  "vArabicPymtDesc": null,
  "vPdCompareOption": null,
  "nPdModalPremTimes": null,
  "vPdPutOption": null,
  "nTpModalPremTimes": null,
  "nFpModalPremTimes": null,
  "nFpMaxPolicyAnniversary": null
  },
  {
  "code": "ME250",
  "desc": "MEDICAL EXPENSES 250",
  "code1": null,
  "desc1": null,
  "status": "A",
  "lastInftim": null,
  "lastupdUser": null,
  "lastupdProg": null,
  "id": null,
  "vArabicPymtDesc": null,
  "vPdCompareOption": null,
  "nPdModalPremTimes": null,
  "vPdPutOption": null,
  "nTpModalPremTimes": null,
  "nFpModalPremTimes": null,
  "nFpMaxPolicyAnniversary": null
  },
  {
  "code": "ME500",
  "desc": "MEDICAL EXPENSES 500",
  "code1": null,
  "desc1": null,
  "status": "A",
  "lastInftim": null,
  "lastupdUser": null,
  "lastupdProg": null,
  "id": null,
  "vArabicPymtDesc": null,
  "vPdCompareOption": null,
  "nPdModalPremTimes": null,
  "vPdPutOption": null,
  "nTpModalPremTimes": null,
  "nFpModalPremTimes": null,
  "nFpMaxPolicyAnniversary": null
  },
  {
  "code": "TPD",
  "desc": "TOTAL & PERMANENT DISABILITY",
  "code1": null,
  "desc1": null,
  "status": "A",
  "lastInftim": null,
  "lastupdUser": null,
  "lastupdProg": null,
  "id": null,
  "vArabicPymtDesc": null,
  "vPdCompareOption": null,
  "nPdModalPremTimes": null,
  "vPdPutOption": null,
  "nTpModalPremTimes": null,
  "nFpModalPremTimes": null,
  "nFpMaxPolicyAnniversary": null
  },
  {
  "code": "PPD",
  "desc": "PARTIAL & PERMANENT DISABBILITY",
  "code1": null,
  "desc1": null,
  "status": "A",
  "lastInftim": null,
  "lastupdUser": null,
  "lastupdProg": null,
  "id": null,
  "vArabicPymtDesc": null,
  "vPdCompareOption": null,
  "nPdModalPremTimes": null,
  "vPdPutOption": null,
  "nTpModalPremTimes": null,
  "nFpModalPremTimes": null,
  "nFpMaxPolicyAnniversary": null
  },
  {
  "code": "OAD",
  "desc": "OLD AGE DISABLEMENT",
  "code1": null,
  "desc1": null,
  "status": "A",
  "lastInftim": null,
  "lastupdUser": null,
  "lastupdProg": null,
  "id": null,
  "vArabicPymtDesc": null,
  "vPdCompareOption": null,
  "nPdModalPremTimes": null,
  "vPdPutOption": null,
  "nTpModalPremTimes": null,
  "nFpModalPremTimes": null,
  "nFpMaxPolicyAnniversary": null
  },
  {
  "code": "TTD",
  "desc": "TOTAL TEMPORARY DISABLITY",
  "code1": null,
  "desc1": null,
  "status": "A",
  "lastInftim": null,
  "lastupdUser": null,
  "lastupdProg": null,
  "id": null,
  "vArabicPymtDesc": null,
  "vPdCompareOption": null,
  "nPdModalPremTimes": null,
  "vPdPutOption": null,
  "nTpModalPremTimes": null,
  "nFpModalPremTimes": null,
  "nFpMaxPolicyAnniversary": null
  },
  {
  "code": "PTD",
  "desc": "PARTIAL TEMPORARY DISABLITY",
  "code1": null,
  "desc1": null,
  "status": "A",
  "lastInftim": null,
  "lastupdUser": null,
  "lastupdProg": null,
  "id": null,
  "vArabicPymtDesc": null,
  "vPdCompareOption": null,
  "nPdModalPremTimes": null,
  "vPdPutOption": null,
  "nTpModalPremTimes": null,
  "nFpModalPremTimes": null,
  "nFpMaxPolicyAnniversary": null
  },
  {
  "code": "DTH",
  "desc": "DEATH ",
  "code1": null,
  "desc1": null,
  "status": "A",
  "lastInftim": null,
  "lastupdUser": null,
  "lastupdProg": null,
  "id": null,
  "vArabicPymtDesc": null,
  "vPdCompareOption": null,
  "nPdModalPremTimes": null,
  "vPdPutOption": null,
  "nTpModalPremTimes": null,
  "nFpModalPremTimes": null,
  "nFpMaxPolicyAnniversary": null
  },
  {
  "code": "LDB",
  "desc": "LIFE DISABILITIES BENEFIT",
  "code1": null,
  "desc1": null,
  "status": "A",
  "lastInftim": null,
  "lastupdUser": null,
  "lastupdProg": null,
  "id": null,
  "vArabicPymtDesc": null,
  "vPdCompareOption": null,
  "nPdModalPremTimes": null,
  "vPdPutOption": null,
  "nTpModalPremTimes": null,
  "nFpModalPremTimes": null,
  "nFpMaxPolicyAnniversary": null
  },
  {
  "code": "LDB-FP",
  "desc": "LIFE DISABILITIES BENEFIT - FINAL PAYMENT",
  "code1": null,
  "desc1": null,
  "status": "A",
  "lastInftim": null,
  "lastupdUser": null,
  "lastupdProg": null,
  "id": null,
  "vArabicPymtDesc": null,
  "vPdCompareOption": null,
  "nPdModalPremTimes": null,
  "vPdPutOption": null,
  "nTpModalPremTimes": null,
  "nFpModalPremTimes": null,
  "nFpMaxPolicyAnniversary": null
  },
  {
  "code": "RE",
  "desc": "REPATRIATION EXPENSES",
  "code1": null,
  "desc1": null,
  "status": "A",
  "lastInftim": null,
  "lastupdUser": null,
  "lastupdProg": null,
  "id": null,
  "vArabicPymtDesc": null,
  "vPdCompareOption": null,
  "nPdModalPremTimes": null,
  "vPdPutOption": null,
  "nTpModalPremTimes": null,
  "nFpModalPremTimes": null,
  "nFpMaxPolicyAnniversary": null
  }
  ]