[
  {
  "code": "VCLICI4",
  "desc": "War (whether declared or not), or war activities including invasion or acts of foreign enemies, civil war, revolution, rebellion, uprising against the government, terrorist acts, ursurp; or",
  "code1": null,
  "desc1": null,
  "status": null,
  "lastInftim": null,
  "lastupdUser": null,
  "lastupdProg": null,
  "id": null,
  "vArabicPymtDesc": null,
  "vPdCompareOption": null,
  "nPdModalPremTimes": null,
  "vPdPutOption": null,
  "nTpModalPremTimes": null,
  "nFpModalPremTimes": null,
  "nFpMaxPolicyAnniversary": null
  },
  {
  "code": "VCLICI5",
  "desc": "Human Immunodeficiency Virus (HIV) ) / Acquired Immunization Deficiency Syndrome (AIDS) and illness related to HIV / AIDS; except HIV infection when working as a medical staff, or police; or",
  "code1": null,
  "desc1": null,
  "status": null,
  "lastInftim": null,
  "lastupdUser": null,
  "lastupdProg": null,
  "id": null,
  "vArabicPymtDesc": null,
  "vPdCompareOption": null,
  "nPdModalPremTimes": null,
  "vPdPutOption": null,
  "nTpModalPremTimes": null,
  "nFpModalPremTimes": null,
  "nFpMaxPolicyAnniversary": null
  },
  {
  "code": "VCLICI6",
  "desc": "LI is affected by drugs, alcohol or narcotics not prescribed by a Doctor or as a result of alcohol or drug abuse;or",
  "code1": null,
  "desc1": null,
  "status": null,
  "lastInftim": null,
  "lastupdUser": null,
  "lastupdProg": null,
  "id": null,
  "vArabicPymtDesc": null,
  "vPdCompareOption": null,
  "nPdModalPremTimes": null,
  "vPdPutOption": null,
  "nTpModalPremTimes": null,
  "nFpModalPremTimes": null,
  "nFpMaxPolicyAnniversary": null
  },
  {
  "code": "VCLICI7",
  "desc": "LI is affected directly or indirectly from any congenital conditions or inherited disorders;or",
  "code1": null,
  "desc1": null,
  "status": null,
  "lastInftim": null,
  "lastupdUser": null,
  "lastupdProg": null,
  "id": null,
  "vArabicPymtDesc": null,
  "vPdCompareOption": null,
  "nPdModalPremTimes": null,
  "vPdPutOption": null,
  "nTpModalPremTimes": null,
  "nFpModalPremTimes": null,
  "nFpMaxPolicyAnniversary": null
  },
  {
  "code": "VCLICI8",
  "desc": "LI engaged in violation or attempted violation of the law; or",
  "code1": null,
  "desc1": null,
  "status": null,
  "lastInftim": null,
  "lastupdUser": null,
  "lastupdProg": null,
  "id": null,
  "vArabicPymtDesc": null,
  "vPdCompareOption": null,
  "nPdModalPremTimes": null,
  "vPdPutOption": null,
  "nTpModalPremTimes": null,
  "nFpModalPremTimes": null,
  "nFpMaxPolicyAnniversary": null
  },
  {
  "code": "VCLICI9",
  "desc": "LI engaged in air travel except as a fare-paying passenger in a properly licensed commercial aircraft or participation in hazardous pursuits / professional sports; or",
  "code1": null,
  "desc1": null,
  "status": null,
  "lastInftim": null,
  "lastupdUser": null,
  "lastupdProg": null,
  "id": null,
  "vArabicPymtDesc": null,
  "vPdCompareOption": null,
  "nPdModalPremTimes": null,
  "vPdPutOption": null,
  "nTpModalPremTimes": null,
  "nFpModalPremTimes": null,
  "nFpMaxPolicyAnniversary": null
  },
  {
  "code": "VCLICI10",
  "desc": "The intentional act of Policy owner, LI, Beneficiary or person who will otherwise be entitled to the benefit payable (if any).",
  "code1": null,
  "desc1": null,
  "status": null,
  "lastInftim": null,
  "lastupdUser": null,
  "lastupdProg": null,
  "id": null,
  "vArabicPymtDesc": null,
  "vPdCompareOption": null,
  "nPdModalPremTimes": null,
  "vPdPutOption": null,
  "nTpModalPremTimes": null,
  "nFpModalPremTimes": null,
  "nFpMaxPolicyAnniversary": null
  },
  {
  "code": "VEXCL1",
  "desc": "Earthquakes, Volcanoes, Explosions Due to Nuclear",
  "code1": null,
  "desc1": null,
  "status": null,
  "lastInftim": null,
  "lastupdUser": null,
  "lastupdProg": null,
  "id": null,
  "vArabicPymtDesc": null,
  "vPdCompareOption": null,
  "nPdModalPremTimes": null,
  "vPdPutOption": null,
  "nTpModalPremTimes": null,
  "nFpModalPremTimes": null,
  "nFpMaxPolicyAnniversary": null
  },
  {
  "code": "VEXCL2",
  "desc": "Any disability arises prior to the risk commencing date before the reinstatement date which is not provided by the Life Insured in Insurance Application Form or Health Settlement.",
  "code1": null,
  "desc1": null,
  "status": null,
  "lastInftim": null,
  "lastupdUser": null,
  "lastupdProg": null,
  "id": null,
  "vArabicPymtDesc": null,
  "vPdCompareOption": null,
  "nPdModalPremTimes": null,
  "vPdPutOption": null,
  "nTpModalPremTimes": null,
  "nFpModalPremTimes": null,
  "nFpMaxPolicyAnniversary": null
  },
  {
  "code": "EXCLU048",
  "desc": "\tDisease diagnosed within sixty (60) days from policy Issued date or rider reinstatement date ",
  "code1": null,
  "desc1": null,
  "status": null,
  "lastInftim": null,
  "lastupdUser": null,
  "lastupdProg": null,
  "id": null,
  "vArabicPymtDesc": null,
  "vPdCompareOption": null,
  "nPdModalPremTimes": null,
  "vPdPutOption": null,
  "nTpModalPremTimes": null,
  "nFpModalPremTimes": null,
  "nFpMaxPolicyAnniversary": null
  },
  {
  "code": "EXCLU049",
  "desc": "\tAny critical illness that is pre-existing and/or has been diagnosis",
  "code1": null,
  "desc1": null,
  "status": null,
  "lastInftim": null,
  "lastupdUser": null,
  "lastupdProg": null,
  "id": null,
  "vArabicPymtDesc": null,
  "vPdCompareOption": null,
  "nPdModalPremTimes": null,
  "vPdPutOption": null,
  "nTpModalPremTimes": null,
  "nFpModalPremTimes": null,
  "nFpMaxPolicyAnniversary": null
  },
  {
  "code": "EXCLU050",
  "desc": "\tPayer is diagnosed of having suffered from Myocardial Infarction or Coronary Bypass Surgery prior to Issued date or reinstatement date",
  "code1": null,
  "desc1": null,
  "status": null,
  "lastInftim": null,
  "lastupdUser": null,
  "lastupdProg": null,
  "id": null,
  "vArabicPymtDesc": null,
  "vPdCompareOption": null,
  "nPdModalPremTimes": null,
  "vPdPutOption": null,
  "nTpModalPremTimes": null,
  "nFpModalPremTimes": null,
  "nFpMaxPolicyAnniversary": null
  },
  {
  "code": "EXCLU051",
  "desc": "Fits, disease or illness, suicide, duelling or the hands of justice ",
  "code1": null,
  "desc1": null,
  "status": null,
  "lastInftim": null,
  "lastupdUser": null,
  "lastupdProg": null,
  "id": null,
  "vArabicPymtDesc": null,
  "vPdCompareOption": null,
  "nPdModalPremTimes": null,
  "vPdPutOption": null,
  "nTpModalPremTimes": null,
  "nFpModalPremTimes": null,
  "nFpMaxPolicyAnniversary": null
  },
  {
  "code": "EXCLU001",
  "desc": "Self-inflicted injuries or suicide whild sane or insane",
  "code1": null,
  "desc1": null,
  "status": null,
  "lastInftim": null,
  "lastupdUser": null,
  "lastupdProg": null,
  "id": null,
  "vArabicPymtDesc": null,
  "vPdCompareOption": null,
  "nPdModalPremTimes": null,
  "vPdPutOption": null,
  "nTpModalPremTimes": null,
  "nFpModalPremTimes": null,
  "nFpMaxPolicyAnniversary": null
  },
  {
  "code": "EXCLU002",
  "desc": "Bodily defect or mental or illness or disease",
  "code1": null,
  "desc1": null,
  "status": null,
  "lastInftim": null,
  "lastupdUser": null,
  "lastupdProg": null,
  "id": null,
  "vArabicPymtDesc": null,
  "vPdCompareOption": null,
  "nPdModalPremTimes": null,
  "vPdPutOption": null,
  "nTpModalPremTimes": null,
  "nFpModalPremTimes": null,
  "nFpMaxPolicyAnniversary": null
  },
  {
  "code": "EXCLU003",
  "desc": "Taking poison or the inhaling of gas, voluntary or otherwise",
  "code1": null,
  "desc1": null,
  "status": null,
  "lastInftim": null,
  "lastupdUser": null,
  "lastupdProg": null,
  "id": null,
  "vArabicPymtDesc": null,
  "vPdCompareOption": null,
  "nPdModalPremTimes": null,
  "vPdPutOption": null,
  "nTpModalPremTimes": null,
  "nFpModalPremTimes": null,
  "nFpMaxPolicyAnniversary": null
  },
  {
  "code": "EXCLU004",
  "desc": "On duty in any navy, army, air force, police or fire brigade",
  "code1": null,
  "desc1": null,
  "status": null,
  "lastInftim": null,
  "lastupdUser": null,
  "lastupdProg": null,
  "id": null,
  "vArabicPymtDesc": null,
  "vPdCompareOption": null,
  "nPdModalPremTimes": null,
  "vPdPutOption": null,
  "nTpModalPremTimes": null,
  "nFpModalPremTimes": null,
  "nFpMaxPolicyAnniversary": null
  },
  {
  "code": "EXCLU005",
  "desc": "War, invasion, civil war, rebellion, riot or civil commotion",
  "code1": null,
  "desc1": null,
  "status": null,
  "lastInftim": null,
  "lastupdUser": null,
  "lastupdProg": null,
  "id": null,
  "vArabicPymtDesc": null,
  "vPdCompareOption": null,
  "nPdModalPremTimes": null,
  "vPdPutOption": null,
  "nTpModalPremTimes": null,
  "nFpModalPremTimes": null,
  "nFpMaxPolicyAnniversary": null
  },
  {
  "code": "EXCLU006",
  "desc": "Engaging in aerial flights including parachuting and sky diving other than as a fare paying passenger or crew member on a regular public air service",
  "code1": null,
  "desc1": null,
  "status": null,
  "lastInftim": null,
  "lastupdUser": null,
  "lastupdProg": null,
  "id": null,
  "vArabicPymtDesc": null,
  "vPdCompareOption": null,
  "nPdModalPremTimes": null,
  "vPdPutOption": null,
  "nTpModalPremTimes": null,
  "nFpModalPremTimes": null,
  "nFpMaxPolicyAnniversary": null
  },
  {
  "code": "EXCLU007",
  "desc": "Committing, attempting or provoking an assault or from any violation of the law",
  "code1": null,
  "desc1": null,
  "status": null,
  "lastInftim": null,
  "lastupdUser": null,
  "lastupdProg": null,
  "id": null,
  "vArabicPymtDesc": null,
  "vPdCompareOption": null,
  "nPdModalPremTimes": null,
  "vPdPutOption": null,
  "nTpModalPremTimes": null,
  "nFpModalPremTimes": null,
  "nFpMaxPolicyAnniversary": null
  },
  {
  "code": "EXCLU008",
  "desc": "Under the influence of alcohol, drugs or narcotic",
  "code1": null,
  "desc1": null,
  "status": null,
  "lastInftim": null,
  "lastupdUser": null,
  "lastupdProg": null,
  "id": null,
  "vArabicPymtDesc": null,
  "vPdCompareOption": null,
  "nPdModalPremTimes": null,
  "vPdPutOption": null,
  "nTpModalPremTimes": null,
  "nFpModalPremTimes": null,
  "nFpMaxPolicyAnniversary": null
  },
  {
  "code": "EXCLU009",
  "desc": "Engaging in racing of any kind other than on foot",
  "code1": null,
  "desc1": null,
  "status": null,
  "lastInftim": null,
  "lastupdUser": null,
  "lastupdProg": null,
  "id": null,
  "vArabicPymtDesc": null,
  "vPdCompareOption": null,
  "nPdModalPremTimes": null,
  "vPdPutOption": null,
  "nTpModalPremTimes": null,
  "nFpModalPremTimes": null,
  "nFpMaxPolicyAnniversary": null
  },
  {
  "code": "EXCLU010",
  "desc": "Engaging in any underwater activity",
  "code1": null,
  "desc1": null,
  "status": null,
  "lastInftim": null,
  "lastupdUser": null,
  "lastupdProg": null,
  "id": null,
  "vArabicPymtDesc": null,
  "vPdCompareOption": null,
  "nPdModalPremTimes": null,
  "vPdPutOption": null,
  "nTpModalPremTimes": null,
  "nFpModalPremTimes": null,
  "nFpMaxPolicyAnniversary": null
  },
  {
  "code": "EXCLU011",
  "desc": "Wilful or negligent exposure to unnecessary risks or perils",
  "code1": null,
  "desc1": null,
  "status": null,
  "lastInftim": null,
  "lastupdUser": null,
  "lastupdProg": null,
  "id": null,
  "vArabicPymtDesc": null,
  "vPdCompareOption": null,
  "nPdModalPremTimes": null,
  "vPdPutOption": null,
  "nTpModalPremTimes": null,
  "nFpModalPremTimes": null,
  "nFpMaxPolicyAnniversary": null
  },
  {
  "code": "EXCLU012",
  "desc": "Strike, riot, civil commotion, war (whether declared or not)",
  "code1": null,
  "desc1": null,
  "status": null,
  "lastInftim": null,
  "lastupdUser": null,
  "lastupdProg": null,
  "id": null,
  "vArabicPymtDesc": null,
  "vPdCompareOption": null,
  "nPdModalPremTimes": null,
  "vPdPutOption": null,
  "nTpModalPremTimes": null,
  "nFpModalPremTimes": null,
  "nFpMaxPolicyAnniversary": null
  },
  {
  "code": "EXCLU013",
  "desc": "Engaging in aviation (except as an ordinary fare-paying passenger or crew member on a regular public air service)",
  "code1": null,
  "desc1": null,
  "status": null,
  "lastInftim": null,
  "lastupdUser": null,
  "lastupdProg": null,
  "id": null,
  "vArabicPymtDesc": null,
  "vPdCompareOption": null,
  "nPdModalPremTimes": null,
  "vPdPutOption": null,
  "nTpModalPremTimes": null,
  "nFpModalPremTimes": null,
  "nFpMaxPolicyAnniversary": null
  },
  {
  "code": "EXCLU014",
  "desc": "Under the influence of intoxicating liquor or any narcotic or drug",
  "code1": null,
  "desc1": null,
  "status": null,
  "lastInftim": null,
  "lastupdUser": null,
  "lastupdProg": null,
  "id": null,
  "vArabicPymtDesc": null,
  "vPdCompareOption": null,
  "nPdModalPremTimes": null,
  "vPdPutOption": null,
  "nTpModalPremTimes": null,
  "nFpModalPremTimes": null,
  "nFpMaxPolicyAnniversary": null
  },
  {
  "code": "EXCLU015",
  "desc": "Suicide, attempted suicide, intentional self injury, duelling or in the hands of justice",
  "code1": null,
  "desc1": null,
  "status": null,
  "lastInftim": null,
  "lastupdUser": null,
  "lastupdProg": null,
  "id": null,
  "vArabicPymtDesc": null,
  "vPdCompareOption": null,
  "nPdModalPremTimes": null,
  "vPdPutOption": null,
  "nTpModalPremTimes": null,
  "nFpModalPremTimes": null,
  "nFpMaxPolicyAnniversary": null
  },
  {
  "code": "EXCLU016",
  "desc": "Mental disorder, insanity",
  "code1": null,
  "desc1": null,
  "status": null,
  "lastInftim": null,
  "lastupdUser": null,
  "lastupdProg": null,
  "id": null,
  "vArabicPymtDesc": null,
  "vPdCompareOption": null,
  "nPdModalPremTimes": null,
  "vPdPutOption": null,
  "nTpModalPremTimes": null,
  "nFpModalPremTimes": null,
  "nFpMaxPolicyAnniversary": null
  },
  {
  "code": "EXCLU017",
  "desc": "Sexually transmited disease, HIV, acquired immuni deficiency syndrome",
  "code1": null,
  "desc1": null,
  "status": null,
  "lastInftim": null,
  "lastupdUser": null,
  "lastupdProg": null,
  "id": null,
  "vArabicPymtDesc": null,
  "vPdCompareOption": null,
  "nPdModalPremTimes": null,
  "vPdPutOption": null,
  "nTpModalPremTimes": null,
  "nFpModalPremTimes": null,
  "nFpMaxPolicyAnniversary": null
  },
  {
  "code": "EXCLU018",
  "desc": "Childbirth, pregnancy, miscarriage and their sequelae",
  "code1": null,
  "desc1": null,
  "status": null,
  "lastInftim": null,
  "lastupdUser": null,
  "lastupdProg": null,
  "id": null,
  "vArabicPymtDesc": null,
  "vPdCompareOption": null,
  "nPdModalPremTimes": null,
  "vPdPutOption": null,
  "nTpModalPremTimes": null,
  "nFpModalPremTimes": null,
  "nFpMaxPolicyAnniversary": null
  },
  {
  "code": "EXCLU019",
  "desc": "Cosmetic or plastic surgery or any elective surgery or congenital anomalies",
  "code1": null,
  "desc1": null,
  "status": null,
  "lastInftim": null,
  "lastupdUser": null,
  "lastupdProg": null,
  "id": null,
  "vArabicPymtDesc": null,
  "vPdCompareOption": null,
  "nPdModalPremTimes": null,
  "vPdPutOption": null,
  "nTpModalPremTimes": null,
  "nFpModalPremTimes": null,
  "nFpMaxPolicyAnniversary": null
  },
  {
  "code": "EXCLU020",
  "desc": "Hereditary conditions - Thalasaemia",
  "code1": null,
  "desc1": null,
  "status": null,
  "lastInftim": null,
  "lastupdUser": null,
  "lastupdProg": null,
  "id": null,
  "vArabicPymtDesc": null,
  "vPdCompareOption": null,
  "nPdModalPremTimes": null,
  "vPdPutOption": null,
  "nTpModalPremTimes": null,
  "nFpModalPremTimes": null,
  "nFpMaxPolicyAnniversary": null
  },
  {
  "code": "EXCLU021",
  "desc": "Hereditary conditions - Haemophilia",
  "code1": null,
  "desc1": null,
  "status": null,
  "lastInftim": null,
  "lastupdUser": null,
  "lastupdProg": null,
  "id": null,
  "vArabicPymtDesc": null,
  "vPdCompareOption": null,
  "nPdModalPremTimes": null,
  "vPdPutOption": null,
  "nTpModalPremTimes": null,
  "nFpModalPremTimes": null,
  "nFpMaxPolicyAnniversary": null
  },
  {
  "code": "EXCLU022",
  "desc": "Hereditary conditions - Glucose-6-phosphate dehydrogenase (G6PD)",
  "code1": null,
  "desc1": null,
  "status": null,
  "lastInftim": null,
  "lastupdUser": null,
  "lastupdProg": null,
  "id": null,
  "vArabicPymtDesc": null,
  "vPdCompareOption": null,
  "nPdModalPremTimes": null,
  "vPdPutOption": null,
  "nTpModalPremTimes": null,
  "nFpModalPremTimes": null,
  "nFpMaxPolicyAnniversary": null
  },
  {
  "code": "EXCLU023",
  "desc": "Hereditary conditions - Sickle Cell Anaemia",
  "code1": null,
  "desc1": null,
  "status": null,
  "lastInftim": null,
  "lastupdUser": null,
  "lastupdProg": null,
  "id": null,
  "vArabicPymtDesc": null,
  "vPdCompareOption": null,
  "nPdModalPremTimes": null,
  "vPdPutOption": null,
  "nTpModalPremTimes": null,
  "nFpModalPremTimes": null,
  "nFpMaxPolicyAnniversary": null
  },
  {
  "code": "EXCLU024",
  "desc": "Hereditary conditions - Familial Exudative Vitreoretinopathy",
  "code1": null,
  "desc1": null,
  "status": null,
  "lastInftim": null,
  "lastupdUser": null,
  "lastupdProg": null,
  "id": null,
  "vArabicPymtDesc": null,
  "vPdCompareOption": null,
  "nPdModalPremTimes": null,
  "vPdPutOption": null,
  "nTpModalPremTimes": null,
  "nFpModalPremTimes": null,
  "nFpMaxPolicyAnniversary": null
  },
  {
  "code": "EXCLU025",
  "desc": "Hereditary conditions - Cystic Fibrosis",
  "code1": null,
  "desc1": null,
  "status": null,
  "lastInftim": null,
  "lastupdUser": null,
  "lastupdProg": null,
  "id": null,
  "vArabicPymtDesc": null,
  "vPdCompareOption": null,
  "nPdModalPremTimes": null,
  "vPdPutOption": null,
  "nTpModalPremTimes": null,
  "nFpModalPremTimes": null,
  "nFpMaxPolicyAnniversary": null
  },
  {
  "code": "EXCLU026",
  "desc": "Hereditary conditions - Marfan Syndrome",
  "code1": null,
  "desc1": null,
  "status": null,
  "lastInftim": null,
  "lastupdUser": null,
  "lastupdProg": null,
  "id": null,
  "vArabicPymtDesc": null,
  "vPdCompareOption": null,
  "nPdModalPremTimes": null,
  "vPdPutOption": null,
  "nTpModalPremTimes": null,
  "nFpModalPremTimes": null,
  "nFpMaxPolicyAnniversary": null
  },
  {
  "code": "EXCLU027",
  "desc": "Hereditary conditions - Polycystic Kidney",
  "code1": null,
  "desc1": null,
  "status": null,
  "lastInftim": null,
  "lastupdUser": null,
  "lastupdProg": null,
  "id": null,
  "vArabicPymtDesc": null,
  "vPdCompareOption": null,
  "nPdModalPremTimes": null,
  "vPdPutOption": null,
  "nTpModalPremTimes": null,
  "nFpModalPremTimes": null,
  "nFpMaxPolicyAnniversary": null
  },
  {
  "code": "EXCLU028",
  "desc": "Hereditary conditions - Homocystinuria",
  "code1": null,
  "desc1": null,
  "status": null,
  "lastInftim": null,
  "lastupdUser": null,
  "lastupdProg": null,
  "id": null,
  "vArabicPymtDesc": null,
  "vPdCompareOption": null,
  "nPdModalPremTimes": null,
  "vPdPutOption": null,
  "nTpModalPremTimes": null,
  "nFpModalPremTimes": null,
  "nFpMaxPolicyAnniversary": null
  },
  {
  "code": "EXCLU029",
  "desc": "Hereditary conditions - Gangliosidosis",
  "code1": null,
  "desc1": null,
  "status": null,
  "lastInftim": null,
  "lastupdUser": null,
  "lastupdProg": null,
  "id": null,
  "vArabicPymtDesc": null,
  "vPdCompareOption": null,
  "nPdModalPremTimes": null,
  "vPdPutOption": null,
  "nTpModalPremTimes": null,
  "nFpModalPremTimes": null,
  "nFpMaxPolicyAnniversary": null
  },
  {
  "code": "EXCLU030",
  "desc": "Hereditary conditions - Celiac Disease",
  "code1": null,
  "desc1": null,
  "status": null,
  "lastInftim": null,
  "lastupdUser": null,
  "lastupdProg": null,
  "id": null,
  "vArabicPymtDesc": null,
  "vPdCompareOption": null,
  "nPdModalPremTimes": null,
  "vPdPutOption": null,
  "nTpModalPremTimes": null,
  "nFpModalPremTimes": null,
  "nFpMaxPolicyAnniversary": null
  },
  {
  "code": "EXCLU031",
  "desc": "Oral Surgeries - Dental conditions or any oral treatment not resulted from accident",
  "code1": null,
  "desc1": null,
  "status": null,
  "lastInftim": null,
  "lastupdUser": null,
  "lastupdProg": null,
  "id": null,
  "vArabicPymtDesc": null,
  "vPdCompareOption": null,
  "nPdModalPremTimes": null,
  "vPdPutOption": null,
  "nTpModalPremTimes": null,
  "nFpModalPremTimes": null,
  "nFpMaxPolicyAnniversary": null
  },
  {
  "code": "EXCLU032",
  "desc": "Plastic Surgecy - Except cosmetic surgery done solely to regain/improve function",
  "code1": null,
  "desc1": null,
  "status": null,
  "lastInftim": null,
  "lastupdUser": null,
  "lastupdProg": null,
  "id": null,
  "vArabicPymtDesc": null,
  "vPdCompareOption": null,
  "nPdModalPremTimes": null,
  "vPdPutOption": null,
  "nTpModalPremTimes": null,
  "nFpModalPremTimes": null,
  "nFpMaxPolicyAnniversary": null
  },
  {
  "code": "EXCLU033",
  "desc": "Congenital Conditions - Medical or physical abnormalities existing at the time of birth, as well as neo-natal physical abnormalities developing within 6 months from the time of birth",
  "code1": null,
  "desc1": null,
  "status": null,
  "lastInftim": null,
  "lastupdUser": null,
  "lastupdProg": null,
  "id": null,
  "vArabicPymtDesc": null,
  "vPdCompareOption": null,
  "nPdModalPremTimes": null,
  "vPdPutOption": null,
  "nTpModalPremTimes": null,
  "nFpModalPremTimes": null,
  "nFpMaxPolicyAnniversary": null
  },
  {
  "code": "EXCLU034",
  "desc": "Circumcision - Except due to injury or infection",
  "code1": null,
  "desc1": null,
  "status": null,
  "lastInftim": null,
  "lastupdUser": null,
  "lastupdProg": null,
  "id": null,
  "vArabicPymtDesc": null,
  "vPdCompareOption": null,
  "nPdModalPremTimes": null,
  "vPdPutOption": null,
  "nTpModalPremTimes": null,
  "nFpModalPremTimes": null,
  "nFpMaxPolicyAnniversary": null
  },
  {
  "code": "EXCLU035",
  "desc": "Duelling or while committing an unlawful act or by the hands of justice",
  "code1": null,
  "desc1": null,
  "status": null,
  "lastInftim": null,
  "lastupdUser": null,
  "lastupdProg": null,
  "id": null,
  "vArabicPymtDesc": null,
  "vPdCompareOption": null,
  "nPdModalPremTimes": null,
  "vPdPutOption": null,
  "nTpModalPremTimes": null,
  "nFpModalPremTimes": null,
  "nFpMaxPolicyAnniversary": null
  },
  {
  "code": "EXCLU036",
  "desc": "Willful misuse of alcohol, drugs or narcotic",
  "code1": null,
  "desc1": null,
  "status": null,
  "lastInftim": null,
  "lastupdUser": null,
  "lastupdProg": null,
  "id": null,
  "vArabicPymtDesc": null,
  "vPdCompareOption": null,
  "nPdModalPremTimes": null,
  "vPdPutOption": null,
  "nTpModalPremTimes": null,
  "nFpModalPremTimes": null,
  "nFpMaxPolicyAnniversary": null
  },
  {
  "code": "EXCLU037",
  "desc": "Unlawful act, provoked murder or assault or Hands of justice",
  "code1": null,
  "desc1": null,
  "status": null,
  "lastInftim": null,
  "lastupdUser": null,
  "lastupdProg": null,
  "id": null,
  "vArabicPymtDesc": null,
  "vPdCompareOption": null,
  "nPdModalPremTimes": null,
  "vPdPutOption": null,
  "nTpModalPremTimes": null,
  "nFpModalPremTimes": null,
  "nFpMaxPolicyAnniversary": null
  },
  {
  "code": "EXCLU038",
  "desc": "Engaging in polo, steeple chasing, mountaineering, winter spots, hunting, and water skiing",
  "code1": null,
  "desc1": null,
  "status": null,
  "lastInftim": null,
  "lastupdUser": null,
  "lastupdProg": null,
  "id": null,
  "vArabicPymtDesc": null,
  "vPdCompareOption": null,
  "nPdModalPremTimes": null,
  "vPdPutOption": null,
  "nTpModalPremTimes": null,
  "nFpModalPremTimes": null,
  "nFpMaxPolicyAnniversary": null
  },
  {
  "code": "AC",
  "desc": "ACCIDENTAL",
  "code1": null,
  "desc1": null,
  "status": null,
  "lastInftim": null,
  "lastupdUser": null,
  "lastupdProg": null,
  "id": null,
  "vArabicPymtDesc": null,
  "vPdCompareOption": null,
  "nPdModalPremTimes": null,
  "vPdPutOption": null,
  "nTpModalPremTimes": null,
  "nFpModalPremTimes": null,
  "nFpMaxPolicyAnniversary": null
  },
  {
  "code": "NA",
  "desc": "NON-ACCIDENTAL",
  "code1": null,
  "desc1": null,
  "status": null,
  "lastInftim": null,
  "lastupdUser": null,
  "lastupdProg": null,
  "id": null,
  "vArabicPymtDesc": null,
  "vPdCompareOption": null,
  "nPdModalPremTimes": null,
  "vPdPutOption": null,
  "nTpModalPremTimes": null,
  "nFpModalPremTimes": null,
  "nFpMaxPolicyAnniversary": null
  },
  {
  "code": "SU",
  "desc": "SUICIDAL",
  "code1": null,
  "desc1": null,
  "status": null,
  "lastInftim": null,
  "lastupdUser": null,
  "lastupdProg": null,
  "id": null,
  "vArabicPymtDesc": null,
  "vPdCompareOption": null,
  "nPdModalPremTimes": null,
  "vPdPutOption": null,
  "nTpModalPremTimes": null,
  "nFpModalPremTimes": null,
  "nFpMaxPolicyAnniversary": null
  },
  {
  "code": "EXCLU039",
  "desc": "Treatment for which payment is not required or which is payable by any other insurance",
  "code1": null,
  "desc1": null,
  "status": null,
  "lastInftim": null,
  "lastupdUser": null,
  "lastupdProg": null,
  "id": null,
  "vArabicPymtDesc": null,
  "vPdCompareOption": null,
  "nPdModalPremTimes": null,
  "vPdPutOption": null,
  "nTpModalPremTimes": null,
  "nFpModalPremTimes": null,
  "nFpMaxPolicyAnniversary": null
  },
  {
  "code": "EXCLU040",
  "desc": "Pre-existing conditions selected Illness during the first twelve (12) months of continuous cover",
  "code1": null,
  "desc1": null,
  "status": null,
  "lastInftim": null,
  "lastupdUser": null,
  "lastupdProg": null,
  "id": null,
  "vArabicPymtDesc": null,
  "vPdCompareOption": null,
  "nPdModalPremTimes": null,
  "vPdPutOption": null,
  "nTpModalPremTimes": null,
  "nFpModalPremTimes": null,
  "nFpMaxPolicyAnniversary": null
  },
  {
  "code": "EXCLU041",
  "desc": "CRIMINAL ACTS",
  "code1": null,
  "desc1": null,
  "status": null,
  "lastInftim": null,
  "lastupdUser": null,
  "lastupdProg": null,
  "id": null,
  "vArabicPymtDesc": null,
  "vPdCompareOption": null,
  "nPdModalPremTimes": null,
  "vPdPutOption": null,
  "nTpModalPremTimes": null,
  "nFpModalPremTimes": null,
  "nFpMaxPolicyAnniversary": null
  },
  {
  "code": "EXCLU042",
  "desc": "PLASTIC/COSMETIC SURGERY",
  "code1": null,
  "desc1": null,
  "status": null,
  "lastInftim": null,
  "lastupdUser": null,
  "lastupdProg": null,
  "id": null,
  "vArabicPymtDesc": null,
  "vPdCompareOption": null,
  "nPdModalPremTimes": null,
  "vPdPutOption": null,
  "nTpModalPremTimes": null,
  "nFpModalPremTimes": null,
  "nFpMaxPolicyAnniversary": null
  },
  {
  "code": "EXCLU043",
  "desc": "EYE EXAMINATION, GLASSES AND REFRACTIONS, HEARING AIDS",
  "code1": null,
  "desc1": null,
  "status": null,
  "lastInftim": null,
  "lastupdUser": null,
  "lastupdProg": null,
  "id": null,
  "vArabicPymtDesc": null,
  "vPdCompareOption": null,
  "nPdModalPremTimes": null,
  "vPdPutOption": null,
  "nTpModalPremTimes": null,
  "nFpModalPremTimes": null,
  "nFpMaxPolicyAnniversary": null
  },
  {
  "code": "EXCLU044",
  "desc": "PRIVATE NURSING, REST CURES OR SANITARY CARE, ILLEGAL DRUGS, INTOXICATION, STERILISATION, SEXUALLY TRANSMITTED DISEASE AND ITS SEQUELAE AND HIV-RELATED DISEASE INCLUDING AIDS",
  "code1": null,
  "desc1": null,
  "status": null,
  "lastInftim": null,
  "lastupdUser": null,
  "lastupdProg": null,
  "id": null,
  "vArabicPymtDesc": null,
  "vPdCompareOption": null,
  "nPdModalPremTimes": null,
  "vPdPutOption": null,
  "nTpModalPremTimes": null,
  "nFpModalPremTimes": null,
  "nFpMaxPolicyAnniversary": null
  },
  {
  "code": "EXCLU045",
  "desc": "Sickness or accidents arising from winter sports, professional football, polo, steeplechasing, hunting, mountaineering, racing of any kind other than on foot, aqualung diving, scuba diving, boxing, ice hockey, motor competitions, parachuting, hand-gliding, pot-holing, power boat, show jumping, water skiing and tricks training and/or performance of any form of Martial Art or Self-defence such as Karate, Tae-Kwan-Do, Judo, Wrestling and unarmed combat and yachting outside territorial waters.",
  "code1": null,
  "desc1": null,
  "status": null,
  "lastInftim": null,
  "lastupdUser": null,
  "lastupdProg": null,
  "id": null,
  "vArabicPymtDesc": null,
  "vPdCompareOption": null,
  "nPdModalPremTimes": null,
  "vPdPutOption": null,
  "nTpModalPremTimes": null,
  "nFpModalPremTimes": null,
  "nFpMaxPolicyAnniversary": null
  },
  {
  "code": "EXCLU046",
  "desc": "Charges for telephone, television and transportation other than ambulance",
  "code1": null,
  "desc1": null,
  "status": null,
  "lastInftim": null,
  "lastupdUser": null,
  "lastupdProg": null,
  "id": null,
  "vArabicPymtDesc": null,
  "vPdCompareOption": null,
  "nPdModalPremTimes": null,
  "vPdPutOption": null,
  "nTpModalPremTimes": null,
  "nFpModalPremTimes": null,
  "nFpMaxPolicyAnniversary": null
  },
  {
  "code": "EXCLU047",
  "desc": "Health check-ups or tests",
  "code1": null,
  "desc1": null,
  "status": null,
  "lastInftim": null,
  "lastupdUser": null,
  "lastupdProg": null,
  "id": null,
  "vArabicPymtDesc": null,
  "vPdCompareOption": null,
  "nPdModalPremTimes": null,
  "vPdPutOption": null,
  "nTpModalPremTimes": null,
  "nFpModalPremTimes": null,
  "nFpMaxPolicyAnniversary": null
  },
  {
  "code": "EXCLU052",
  "desc": "Ionizing radiations or contamination by radioactivity from nuclear fuel or from any nuclear waste produced by the combustion of nuclear fuel;",
  "code1": null,
  "desc1": null,
  "status": null,
  "lastInftim": null,
  "lastupdUser": null,
  "lastupdProg": null,
  "id": null,
  "vArabicPymtDesc": null,
  "vPdCompareOption": null,
  "nPdModalPremTimes": null,
  "vPdPutOption": null,
  "nTpModalPremTimes": null,
  "nFpModalPremTimes": null,
  "nFpMaxPolicyAnniversary": null
  },
  {
  "code": "EXCLU053",
  "desc": "The radioactive, toxic, explosive or other hazardous properties of any explosive nuclear assembly or nuclear component thereof",
  "code1": null,
  "desc1": null,
  "status": null,
  "lastInftim": null,
  "lastupdUser": null,
  "lastupdProg": null,
  "id": null,
  "vArabicPymtDesc": null,
  "vPdCompareOption": null,
  "nPdModalPremTimes": null,
  "vPdPutOption": null,
  "nTpModalPremTimes": null,
  "nFpModalPremTimes": null,
  "nFpMaxPolicyAnniversary": null
  },
  {
  "code": "EXCLU054",
  "desc": "For mining occupation.",
  "code1": null,
  "desc1": null,
  "status": null,
  "lastInftim": null,
  "lastupdUser": null,
  "lastupdProg": null,
  "id": null,
  "vArabicPymtDesc": null,
  "vPdCompareOption": null,
  "nPdModalPremTimes": null,
  "vPdPutOption": null,
  "nTpModalPremTimes": null,
  "nFpModalPremTimes": null,
  "nFpMaxPolicyAnniversary": null
  },
  {
  "code": "VCLICI1",
  "desc": "Any pre-existing condition (consequences, relapses or recurrences of diseases or accidents) of Critical Illness or the cause of Critical Illness which existed or was existing before the latest date of Risk commencing date or any Reinstatement date of this Rider; includes the below cases:",
  "code1": null,
  "desc1": null,
  "status": null,
  "lastInftim": null,
  "lastupdUser": null,
  "lastupdProg": null,
  "id": null,
  "vArabicPymtDesc": null,
  "vPdCompareOption": null,
  "nPdModalPremTimes": null,
  "vPdPutOption": null,
  "nTpModalPremTimes": null,
  "nFpModalPremTimes": null,
  "nFpMaxPolicyAnniversary": null
  },
  {
  "code": "VCLICI2",
  "desc": "Critical Illnesses or signs or symptoms which existed or was diagnosed within Waiting period stipulated under Article 2.15 whether or not the LI was aware of such condition; or",
  "code1": null,
  "desc1": null,
  "status": null,
  "lastInftim": null,
  "lastupdUser": null,
  "lastupdProg": null,
  "id": null,
  "vArabicPymtDesc": null,
  "vPdCompareOption": null,
  "nPdModalPremTimes": null,
  "vPdPutOption": null,
  "nTpModalPremTimes": null,
  "nFpModalPremTimes": null,
  "nFpMaxPolicyAnniversary": null
  },
  {
  "code": "VCLICI3",
  "desc": "Attempted suicide; or intentionally self-inflicted injury of the LI while sane or insane; or",
  "code1": null,
  "desc1": null,
  "status": null,
  "lastInftim": null,
  "lastupdUser": null,
  "lastupdProg": null,
  "id": null,
  "vArabicPymtDesc": null,
  "vPdCompareOption": null,
  "nPdModalPremTimes": null,
  "vPdPutOption": null,
  "nTpModalPremTimes": null,
  "nFpModalPremTimes": null,
  "nFpMaxPolicyAnniversary": null
  },
  {
  "code": "WAR",
  "desc": "War, Invasion, act of Foreign Enemies, Hostilities or war life operations, acts of terrorism, civil war, munity.",
  "code1": null,
  "desc1": null,
  "status": null,
  "lastInftim": null,
  "lastupdUser": null,
  "lastupdProg": null,
  "id": null,
  "vArabicPymtDesc": null,
  "vPdCompareOption": null,
  "nPdModalPremTimes": null,
  "vPdPutOption": null,
  "nTpModalPremTimes": null,
  "nFpModalPremTimes": null,
  "nFpMaxPolicyAnniversary": null
  },
  {
  "code": "Suicide",
  "desc": "Suicide",
  "code1": null,
  "desc1": null,
  "status": null,
  "lastInftim": null,
  "lastupdUser": null,
  "lastupdProg": null,
  "id": null,
  "vArabicPymtDesc": null,
  "vPdCompareOption": null,
  "nPdModalPremTimes": null,
  "vPdPutOption": null,
  "nTpModalPremTimes": null,
  "nFpModalPremTimes": null,
  "nFpMaxPolicyAnniversary": null
  },
  {
  "code": "OIEXCL001",
  "desc": "The Life Assured actively participate in war, rebellion, anarchy, sabotage and the intensity events defined as a crime or actively participates in illegal events causing illness which is covered by the policy",
  "code1": null,
  "desc1": null,
  "status": null,
  "lastInftim": null,
  "lastupdUser": null,
  "lastupdProg": null,
  "id": null,
  "vArabicPymtDesc": null,
  "vPdCompareOption": null,
  "nPdModalPremTimes": null,
  "vPdPutOption": null,
  "nTpModalPremTimes": null,
  "nFpModalPremTimes": null,
  "nFpMaxPolicyAnniversary": null
  },
  {
  "code": "OIEXCL002",
  "desc": "Chronic alcohol abuse or the use of drugs (excluding at doctor’s orders)",
  "code1": null,
  "desc1": null,
  "status": null,
  "lastInftim": null,
  "lastupdUser": null,
  "lastupdProg": null,
  "id": null,
  "vArabicPymtDesc": null,
  "vPdCompareOption": null,
  "nPdModalPremTimes": null,
  "vPdPutOption": null,
  "nTpModalPremTimes": null,
  "nFpModalPremTimes": null,
  "nFpMaxPolicyAnniversary": null
  },
  {
  "code": "OIEXCL003",
  "desc": "Intentionally self-inflicted injury, regardless of whether or not the Life Assured is sound of mind and committing suicide within 13 months from the policy issuance date or reinstatement date whichever is later",
  "code1": null,
  "desc1": null,
  "status": null,
  "lastInftim": null,
  "lastupdUser": null,
  "lastupdProg": null,
  "id": null,
  "vArabicPymtDesc": null,
  "vPdCompareOption": null,
  "nPdModalPremTimes": null,
  "vPdPutOption": null,
  "nTpModalPremTimes": null,
  "nFpModalPremTimes": null,
  "nFpMaxPolicyAnniversary": null
  },
  {
  "code": "OIEXCL004",
  "desc": "Illnesses or conditions which are mutations or variations of AIDS, HTVL and HIV",
  "code1": null,
  "desc1": null,
  "status": null,
  "lastInftim": null,
  "lastupdUser": null,
  "lastupdProg": null,
  "id": null,
  "vArabicPymtDesc": null,
  "vPdCompareOption": null,
  "nPdModalPremTimes": null,
  "vPdPutOption": null,
  "nTpModalPremTimes": null,
  "nFpModalPremTimes": null,
  "nFpMaxPolicyAnniversary": null
  },
  {
  "code": "OIEXCL005",
  "desc": "Injury from non-conventional weapons (such as atomic, chemical or biological weapons) or from conventional ballistic missiles",
  "code1": null,
  "desc1": null,
  "status": null,
  "lastInftim": null,
  "lastupdUser": null,
  "lastupdProg": null,
  "id": null,
  "vArabicPymtDesc": null,
  "vPdCompareOption": null,
  "nPdModalPremTimes": null,
  "vPdPutOption": null,
  "nTpModalPremTimes": null,
  "nFpModalPremTimes": null,
  "nFpMaxPolicyAnniversary": null
  },
  {
  "code": "OIEXCL006",
  "desc": "Nuclear fusion, nuclear fission, nuclear waste, where the illness and injuries stem from radioactive or ionizing radiation",
  "code1": null,
  "desc1": null,
  "status": null,
  "lastInftim": null,
  "lastupdUser": null,
  "lastupdProg": null,
  "id": null,
  "vArabicPymtDesc": null,
  "vPdCompareOption": null,
  "nPdModalPremTimes": null,
  "vPdPutOption": null,
  "nTpModalPremTimes": null,
  "nFpModalPremTimes": null,
  "nFpMaxPolicyAnniversary": null
  },
  {
  "code": "OIEXCL007",
  "desc": "All tumours which are histologically described as benign, pre-malignant, borderline malignant, low malignant potential or non-invasive",
  "code1": null,
  "desc1": null,
  "status": null,
  "lastInftim": null,
  "lastupdUser": null,
  "lastupdProg": null,
  "id": null,
  "vArabicPymtDesc": null,
  "vPdCompareOption": null,
  "nPdModalPremTimes": null,
  "vPdPutOption": null,
  "nTpModalPremTimes": null,
  "nFpModalPremTimes": null,
  "nFpMaxPolicyAnniversary": null
  },
  {
  "code": "OIEXCL008",
  "desc": "Any lesion described as carcinoma in-situ",
  "code1": null,
  "desc1": null,
  "status": null,
  "lastInftim": null,
  "lastupdUser": null,
  "lastupdProg": null,
  "id": null,
  "vArabicPymtDesc": null,
  "vPdCompareOption": null,
  "nPdModalPremTimes": null,
  "vPdPutOption": null,
  "nTpModalPremTimes": null,
  "nFpModalPremTimes": null,
  "nFpMaxPolicyAnniversary": null
  },
  {
  "code": "OIEXCL009",
  "desc": "Any malenoma that described as T1aN0M0 by the AJCC Seventh Edition TNM Classification",
  "code1": null,
  "desc1": null,
  "status": null,
  "lastInftim": null,
  "lastupdUser": null,
  "lastupdProg": null,
  "id": null,
  "vArabicPymtDesc": null,
  "vPdCompareOption": null,
  "nPdModalPremTimes": null,
  "vPdPutOption": null,
  "nTpModalPremTimes": null,
  "nFpModalPremTimes": null,
  "nFpMaxPolicyAnniversary": null
  },
  {
  "code": "OIEXCL010",
  "desc": "All non-melanoma skin cancers",
  "code1": null,
  "desc1": null,
  "status": null,
  "lastInftim": null,
  "lastupdUser": null,
  "lastupdProg": null,
  "id": null,
  "vArabicPymtDesc": null,
  "vPdCompareOption": null,
  "nPdModalPremTimes": null,
  "vPdPutOption": null,
  "nTpModalPremTimes": null,
  "nFpModalPremTimes": null,
  "nFpMaxPolicyAnniversary": null
  },
  {
  "code": "OIEXCL011",
  "desc": "Any form of cancer in the presence of HIV infection",
  "code1": null,
  "desc1": null,
  "status": null,
  "lastInftim": null,
  "lastupdUser": null,
  "lastupdProg": null,
  "id": null,
  "vArabicPymtDesc": null,
  "vPdCompareOption": null,
  "nPdModalPremTimes": null,
  "vPdPutOption": null,
  "nTpModalPremTimes": null,
  "nFpModalPremTimes": null,
  "nFpMaxPolicyAnniversary": null
  },
  {
  "code": "OIEXCL012",
  "desc": "Early thyroid cancers that are less than 2cm in diameter and histologically described as TINOMO by the AJCC Seventh Edition TNM Classification",
  "code1": null,
  "desc1": null,
  "status": null,
  "lastInftim": null,
  "lastupdUser": null,
  "lastupdProg": null,
  "id": null,
  "vArabicPymtDesc": null,
  "vPdCompareOption": null,
  "nPdModalPremTimes": null,
  "vPdPutOption": null,
  "nTpModalPremTimes": null,
  "nFpModalPremTimes": null,
  "nFpMaxPolicyAnniversary": null
  },
  {
  "code": "OIEXCL013",
  "desc": "All cancers that are a recurrence or metastases of a tumour that first occurred within the waiting period.",
  "code1": null,
  "desc1": null,
  "status": null,
  "lastInftim": null,
  "lastupdUser": null,
  "lastupdProg": null,
  "id": null,
  "vArabicPymtDesc": null,
  "vPdCompareOption": null,
  "nPdModalPremTimes": null,
  "vPdPutOption": null,
  "nTpModalPremTimes": null,
  "nFpModalPremTimes": null,
  "nFpMaxPolicyAnniversary": null
  },
  {
  "code": "OIEXCL014",
  "desc": "The Acquirement of Immune Deficiency syndrome (AIDS)",
  "code1": null,
  "desc1": null,
  "status": null,
  "lastInftim": null,
  "lastupdUser": null,
  "lastupdProg": null,
  "id": null,
  "vArabicPymtDesc": null,
  "vPdCompareOption": null,
  "nPdModalPremTimes": null,
  "vPdPutOption": null,
  "nTpModalPremTimes": null,
  "nFpModalPremTimes": null,
  "nFpMaxPolicyAnniversary": null
  },
  {
  "code": "OIEXCL015",
  "desc": "Servicing in any capacity for any navy , army & air force",
  "code1": null,
  "desc1": null,
  "status": null,
  "lastInftim": null,
  "lastupdUser": null,
  "lastupdProg": null,
  "id": null,
  "vArabicPymtDesc": null,
  "vPdCompareOption": null,
  "nPdModalPremTimes": null,
  "vPdPutOption": null,
  "nTpModalPremTimes": null,
  "nFpModalPremTimes": null,
  "nFpMaxPolicyAnniversary": null
  },
  {
  "code": "OIEXCL016",
  "desc": "Death caused by nuclear fission or radioactive contamination",
  "code1": null,
  "desc1": null,
  "status": null,
  "lastInftim": null,
  "lastupdUser": null,
  "lastupdProg": null,
  "id": null,
  "vArabicPymtDesc": null,
  "vPdCompareOption": null,
  "nPdModalPremTimes": null,
  "vPdPutOption": null,
  "nTpModalPremTimes": null,
  "nFpModalPremTimes": null,
  "nFpMaxPolicyAnniversary": null
  },
  {
  "code": "OIEXCL017",
  "desc": "Aviation gliding or any form of aerial flight other than as a fare-paying passenger of a recognized airline or charter service",
  "code1": null,
  "desc1": null,
  "status": null,
  "lastInftim": null,
  "lastupdUser": null,
  "lastupdProg": null,
  "id": null,
  "vArabicPymtDesc": null,
  "vPdCompareOption": null,
  "nPdModalPremTimes": null,
  "vPdPutOption": null,
  "nTpModalPremTimes": null,
  "nFpModalPremTimes": null,
  "nFpMaxPolicyAnniversary": null
  },
  {
  "code": "EXCLU101",
  "desc": "Destrutive Agents Exclusion",
  "code1": null,
  "desc1": null,
  "status": null,
  "lastInftim": null,
  "lastupdUser": null,
  "lastupdProg": null,
  "id": null,
  "vArabicPymtDesc": null,
  "vPdCompareOption": null,
  "nPdModalPremTimes": null,
  "vPdPutOption": null,
  "nTpModalPremTimes": null,
  "nFpModalPremTimes": null,
  "nFpMaxPolicyAnniversary": null
  },
  {
  "code": "EXCLU102",
  "desc": "Terrorsim Exclusion",
  "code1": null,
  "desc1": null,
  "status": null,
  "lastInftim": null,
  "lastupdUser": null,
  "lastupdProg": null,
  "id": null,
  "vArabicPymtDesc": null,
  "vPdCompareOption": null,
  "nPdModalPremTimes": null,
  "vPdPutOption": null,
  "nTpModalPremTimes": null,
  "nFpModalPremTimes": null,
  "nFpMaxPolicyAnniversary": null
  },
  {
  "code": "DS099",
  "desc": "LOSS OF ONE ARM AND ONE LEG",
  "code1": null,
  "desc1": null,
  "status": null,
  "lastInftim": null,
  "lastupdUser": null,
  "lastupdProg": null,
  "id": null,
  "vArabicPymtDesc": null,
  "vPdCompareOption": null,
  "nPdModalPremTimes": null,
  "vPdPutOption": null,
  "nTpModalPremTimes": null,
  "nFpModalPremTimes": null,
  "nFpMaxPolicyAnniversary": null
  }
  ]