[
  {
  "code": "PF",
  "desc": "Participant Fund",
  "code1": "N",
  "desc1": "A",
  "status": null,
  "lastInftim": null,
  "lastupdUser": null,
  "lastupdProg": null,
  "id": null,
  "vArabicPymtDesc": null,
  "vPdCompareOption": null,
  "nPdModalPremTimes": null,
  "vPdPutOption": null,
  "nTpModalPremTimes": null,
  "nFpModalPremTimes": null,
  "nFpMaxPolicyAnniversary": null
  },
  {
  "code": "TF",
  "desc": "Tabarru Fund",
  "code1": "N",
  "desc1": "A",
  "status": null,
  "lastInftim": null,
  "lastupdUser": null,
  "lastupdProg": null,
  "id": null,
  "vArabicPymtDesc": null,
  "vPdCompareOption": null,
  "nPdModalPremTimes": null,
  "vPdPutOption": null,
  "nTpModalPremTimes": null,
  "nFpModalPremTimes": null,
  "nFpMaxPolicyAnniversary": null
  },
  {
  "code": "OF",
  "desc": "Operator Fund",
  "code1": "N",
  "desc1": "A",
  "status": null,
  "lastInftim": null,
  "lastupdUser": null,
  "lastupdProg": null,
  "id": null,
  "vArabicPymtDesc": null,
  "vPdCompareOption": null,
  "nPdModalPremTimes": null,
  "vPdPutOption": null,
  "nTpModalPremTimes": null,
  "nFpModalPremTimes": null,
  "nFpMaxPolicyAnniversary": null
  }
  ]